Gen     Best     Avg

0     0.66     0.98

1     0.66     0.85

2     0.66     0.76

3     0.66     0.71

4     0.66     0.7

5     0.66     0.68

6     0.66     0.67

7     0.5     0.51

8     0.66     0.67

9     0.66     0.67

10     0.66     0.67

11     0.66     0.67

12     0.66     0.67

13     0.66     0.67

14     Infinity     NaN

15     0.83     1.02

16     0.83     0.96

17     0.81     0.93

18     0.76     0.88

19     0.67     0.88

20     0.64     0.84

21     0.63     0.78

22     0.58     0.72

23     0.58     0.68

24     0.57     0.65

25     0.48     0.57

26     0.5     0.63

27     0.5     0.6

28     0.49     0.57

29     0.47     0.54

30     0.47     0.53

31     0.47     0.52

32     0.46     0.5

33     0.46     0.49

34     0.45     0.48

35     0.44     NaN

36     0.81     0.88

37     0.81     0.85

38     0.79     0.83

39     0.76     0.81

40     0.75     0.79

41     0.73     0.78

42     0.71     0.76

43     0.7     0.76

44     0.68     0.74

45     0.66     0.73

46     0.64     0.7

47     0.62     0.68

48     0.61     0.66

49     0.57     0.65

50     0.55     0.63

51     0.52     0.6

52     0.51     0.58

53     0.5     0.57

54     0.48     0.54

55     0.48     0.54

56     0.48     0.54

57     0.43     0.49

58     0.45     0.51

59     0.44     0.49

60     0.42     0.49

61     0.49     0.54

62     0.46     0.53

63     0.46     0.51

64     0.41     0.48

65     0.42     0.48

66     0.39     0.47

67     0.37     0.44

68     0.35     0.42

69     0.34     0.39

70     0.33     0.4

71     0.32     0.39

72     0.31     0.37

73     0.29     0.35

74     0.27     0.33

75     0.26     0.32

76     0.24     0.3

77     0.24     0.3

78     0.24     0.3

79     0.22     0.28

80     0.22     0.28

81     0.21     0.27

82     0.32     0.4

83     0.35     0.4

84     0.35     0.4

85     0.32     0.37

86     0.33     0.38

87     0.31     0.36

88     0.32     0.36

89     0.3     0.36

90     0.29     0.34

91     0.26     0.32

92     0.26     0.33

93     0.24     0.31

94     0.25     0.31

95     0.24     0.31

96     0.23     0.31

97     0.21     0.28

98     0.09     0.21

99     0.2     0.27

test cases: 32
Forward: 27   Left: 3   Right: 2
