Gen     Best     Avg
0     0.66     1.02

1     0.66     0.84

2     0.66     0.81

3     0.66     0.71

4     0.66     0.74

5     0.66     0.75

6     0.66     0.71

7     0.5     0.56

8     0.66     0.69

9     0.66     0.68

10     0.66     0.67

11     0.55     0.58

12     0.66     0.67

13     0.66     0.67

14     0.66     0.67

15     0.66     0.67

16     0.66     0.67

17     0.58     0.59

18     0.66     0.67

19     0.66     0.67

20     0.66     0.67

21     0.66     NaN

22     0.77     0.92

23     0.76     0.86

24     0.74     0.82

25     0.66     0.78

26     0.66     0.75

27     0.66     0.74

28     0.65     0.71

29     0.62     0.69

30     0.62     0.67

31     0.61     0.66

32     0.6     0.65

33     0.59     0.63

34     0.58     0.63

35     0.55     0.61

36     0.53     0.59

37     0.53     0.57

38     0.51     0.55

39     0.5     0.54

40     0.48     0.53

41     0.47     0.51

42     0.67     0.74

43     0.67     0.72

44     0.67     0.7

45     0.64     0.69

46     0.64     0.68

47     0.58     0.62

48     0.61     0.65

49     0.6     0.64

50     0.59     0.63

51     0.59     0.62

52     0.58     0.61

53     0.55     0.6

54     0.55     0.59

55     0.54     0.58

56     0.51     0.55

57     0.53     0.57

58     0.53     0.56

59     0.49     0.54

60     0.51     0.55

61     0.49     0.54

62     0.49     0.53

63     0.49     0.52

64     0.45     0.5

65     0.47     0.5

66     0.47     0.5

67     0.46     0.49

68     0.47     0.51

69     0.47     0.5

70     0.46     0.49

71     0.43     0.47

72     0.45     0.48

73     0.44     0.48

74     0.44     0.47

75     0.43     0.47

76     0.42     0.47

77     0.42     0.47

78     0.41     0.49

79     0.58     0.63

80     0.57     0.61

81     0.56     0.6

82     0.55     0.58

83     0.53     0.57

84     0.53     0.57

85     0.53     0.56

86     0.51     0.55

87     0.51     0.55

88     0.51     0.54

89     0.49     0.53

90     0.49     0.53

91     0.47     0.52

92     0.38     0.49

93     0.47     0.51

94     0.45     0.5

95     0.44     0.48

96     0.44     0.48

97     0.42     0.46

98     0.41     0.45

99     0.39     0.43

test cases: 27
 Forward: 23   Left: 2   Right: 2
